…
The timestamps and similar variables were also dropped, but the user names were kept, in case the way the exercises were performed differed sufficiently between users to be worth exploring.   
The dependent variable was converted to factor (it was initially character).  



Variables consisting of >50% NAs were also dropped instead of trying to impute the missing values, because that would have probably introduced too much extra noise.  

```
## # A tibble: 146 x 3
##    variable             na_count prop_na
##    <chr>                   <int>   <dbl>
##  1 roll_belt                   0   0    
##  2 pitch_belt                  0   0    
##  3 yaw_belt                    0   0    
##  4 total_accel_belt            0   0    
##  5 kurtosis_roll_belt      19226   0.980
##  6 kurtosis_picth_belt     19248   0.981
##  7 skewness_roll_belt      19225   0.980
##  8 skewness_roll_belt.1    19248   0.981
##  9 max_roll_belt           19216   0.979
## 10 max_picth_belt          19216   0.979
## # … with 136 more rows
```
…
